POST /incoming

<?xml version="1.0" encoding="UTF-8"?>
<Response>
    <Gather action=“/next-step” timeout="4" numDigits="1">
        <Say language="en-GB">
             Message
        </Say>
    </Gather>
</Response>

POST /next-step
<Response>
    <Gather action=“/next-step2” timeout="4" numDigits="1">
        <Say language="en-GB">
             Message
        </Say>
    </Gather>
</Response>

https://sketch.systems/dziamid/sketch/8a66e5fcc9eab618b02b3f4a51c56c50

// node
