// Jest Snapshot v1, https://goo.gl/fbAQLP

exports[`Providers > Xml > Menu Produces expected output 1`] = `
"<?xml version='1.0'?>
<Response>
    <Gather action='/menuDecision' timeout='4' numDigits='1' input='dtmf speech' speechModel='numbers_and_commands'>
        <Say language='en-GB'>Welcome to the Interview Cafe, please tell us why you're calling or press 1 to make a booking</Say>
    </Gather>
</Response>"
`;
